[
    {
        "name":"Maid Latte",
        "home":"http://readmanga.me/list/person/maid_latte",
        "lang":"ru",
        "image":"http://d.readmanga.ru/uploads/pics/00/48/461.jpg"
    },
    {
        "name":"Maid Latte",
        "home":"http://readmanga.me/list/person/maid_latte",
        "lang":"ru",
        "image":"http://d.readmanga.ru/uploads/pics/00/48/461.jpg"
    },
    {
        "name":"Maid Latte",
        "home":"http://readmanga.me/list/person/maid_latte",
        "lang":"ru",
        "image":"http://d.readmanga.ru/uploads/pics/00/48/461.jpg"
    },
    {
        "name":"Maid Latte",
        "home":"http://readmanga.me/list/person/maid_latte",
        "lang":"ru",
        "image":"http://d.readmanga.ru/uploads/pics/00/48/461.jpg"
    },
    {
        "name":"Maid Latte",
        "home":"http://readmanga.me/list/person/maid_latte",
        "lang":"ru",
        "image":"http://d.readmanga.ru/uploads/pics/00/48/461.jpg"
    }
]
